       0  803.4150
  0.5116  803.5770
  1.0224  803.7490
  1.5324  803.9320
  2.0416  804.1250
  2.5499  804.3280
  3.0575  804.5400
  3.5642  804.7610
  4.0701  804.9910
  4.5753  805.2300
  5.0796  805.4760
  5.5832  805.7300
  6.0860  805.9920
  6.5880  806.2600
  7.0893  806.5350
  7.5898  806.8160
  8.0895  807.1040
  8.5885  807.3960
  9.0867  807.6940
  9.5842  807.9970
 10.0809  808.3050
 10.5769  808.6160
 11.0722  808.9310
 11.5668  809.2500
 12.0606  809.5730
 12.5538  809.8980
 13.0462  810.2260
 13.5379  810.5560
 14.0289  810.8880
 14.5193  811.2220
 15.0089  811.5580
 15.4979  811.8960
 15.9862  812.2340
 16.4738  812.5730
 16.9608  812.9130
 17.4471  813.2530
 17.9327  813.5940
 18.4177  813.9340
 18.9021  814.2750
 19.3858  814.6160
 19.8689  814.9560
 20.3514  815.2960
 20.8332  815.6350
 21.3145  815.9730
 21.7951  816.3110
 22.2751  816.6480
 22.7546  816.9830
 23.2334  817.3180
 23.7116  817.6510
 24.1893  817.9830
 24.6664  818.3130
 25.1429  818.6430
 25.6189  818.9700
 26.0943  819.2960
 26.5691  819.6200
 27.0434  819.9430
 27.5172  820.2630
 27.9904  820.5830
 28.4631  820.9000
 28.9352  821.2150
 29.4069  821.5280
 29.8780  821.8390
 30.3486  822.1480
 30.8188  822.4550
 31.2884  822.7600
 31.7575  823.0620
 32.2262  823.3620
 32.6943  823.6600
 33.1620  823.9550
 33.6292  824.2470
 34.0960  824.5370
 34.5623  824.8240
 35.0282  825.1080
 35.4936  825.3890
 35.9586  825.6660
 36.4231  825.9410
 36.8872  826.2130
 37.3509  826.4800
 37.8141  826.7440
 38.2770  827.0050
 38.7394  827.2610
 39.2015  827.5130
 39.6632  827.7610
 40.1244  828.0040
 40.5853  828.2430
 41.0458  828.4770
 41.5060  828.7050
 41.9657  828.9290
 42.4251  829.1460
 42.8842  829.3580
 43.3429  829.5650
 43.8013  829.7640
 44.2593  829.9570
 44.7170  830.1440
 45.1744  830.3240
 45.6314  830.4960
 46.0881  830.6600
 46.5446  830.8170
 47.0007  830.9660
 47.4565  831.1060
 47.9121  831.2380
 48.3673  831.3600
 48.8223  831.4740
 49.2770  831.5780
 49.7314  831.6720
 50.1855  831.7560
 50.6395  831.8290
 51.0931  831.8920
 51.5465  831.9430
 51.9997  831.9830
 52.4526  832.0120
 52.9053  832.0290
 53.3578  832.0330
 53.8100  832.0250
 54.2621  832.0040
 54.7139  831.9710
 55.1656  831.9230
 55.6170  831.8620
 56.0682  831.7880
 56.5193  831.6990
 56.9702  831.5960
 57.4210  831.4780
 57.8715  831.3450
 58.3219  831.1970
 58.7722  831.0340
 59.2222  830.8560
 59.6722  830.6620
 60.1220  830.4520
 60.5717  830.2260
 61.0212  829.9830
 61.4706  829.7250
 61.9199  829.4490
 62.3691  829.1570
 62.8182  828.8490
 63.2672  828.5230
 63.7161  828.1800
 64.1649  827.8210
 64.6137  827.4440
 65.0623  827.0500
 65.5109  826.6390
 65.9594  826.2100
 66.4079  825.7640
 66.8563  825.3010
 67.3047  824.8200
 67.7530  824.3220
 68.2013  823.8070
 68.6495  823.2740
 69.0977  822.7240
 69.5459  822.1570
 69.9941  821.5730
 70.4423  820.9720
 70.8905  820.3540
 71.3387  819.7190
 71.7868  819.0680
 72.2351  818.4000
 72.6833  817.7160
 73.1315  817.0160
 73.5798  816.2990
 74.0281  815.5670
 74.4765  814.8190
 74.9249  814.0550
 75.3733  813.2760
 75.8219  812.4830
 76.2705  811.6740
 76.7191  810.8500
 77.1678  810.0130
 77.6167  809.1610
 78.0656  808.2960
 78.5146  807.4160
 78.9636  806.5240
 79.4129  805.6190
 79.8622  804.7000
 80.3116  803.7700
 80.7611  802.8270
 81.2108  801.8720
 81.6606  800.9060
 82.1105  799.9290
 82.5606  798.9400
 83.0109  797.9410
 83.4613  796.9320
 83.9118  795.9130
 84.3626  794.8840
 84.8134  793.8460
 85.2645  792.7980
 85.7158  791.7420
 86.1672  790.6780
 86.6188  789.6060
 87.0707  788.5260
 87.5227  787.4390
 87.9750  786.3450
 88.4275  785.2440
 88.8802  784.1360
 89.3331  783.0230
 89.7863  781.9040
 90.2397  780.7800
 90.6934  779.6500
 91.1473  778.5160
 91.6014  777.3780
 92.0558  776.2350
 92.5105  775.0890
 92.9655  773.9390
 93.4207  772.7860
 93.8763  771.6300
 94.3321  770.4710
 94.7882  769.3110
 95.2447  768.1480
 95.7014  766.9840
 96.1584  765.8190
 96.6158  764.6520
 97.0735  763.9520
 97.5315  762.7840
 97.9899  761.6160
 98.4486  760.4480
 98.9077  759.2800
 99.3671  758.1130
 99.8268  756.9460
100.2870  755.7810
100.7475  754.6170
101.2084  753.4540
101.6696  752.2930
102.1313  751.1350
102.5933  749.9780
103.0558  748.8250
103.5186  747.6740
103.9819  746.5260
104.4456  745.3810
104.9097  744.2400
105.3740  743.1030
105.8390  741.9700
106.3050  740.8410
106.7700  739.7160
107.2370  738.5960
107.7040  737.4820
108.1710  736.3720
108.6380  735.2680
109.1070  734.1690
109.5750  733.0760
110.0440  731.9900
110.5140  730.9090
110.9840  729.8350
111.4550  728.7680
111.9260  727.7070
112.3980  726.6540
112.8700  725.6080
113.3420  724.5700
113.8160  723.5390
114.2890  722.5170
114.7640  721.5020
115.2390  720.4960
115.7140  719.4990
116.1900  718.5100
116.6660  717.5310
117.1430  716.5610
117.6210  715.6000
118.0990  714.6490
118.5780  713.7070
119.0580  712.7760
119.5380  711.8550
120.0180  710.9450
120.5000  710.0450
120.9810  709.1560
121.4640  708.2780
121.9470  707.4120
122.4310  706.5570
122.9150  705.7140
123.4000  704.8820
123.8860  704.0630
124.3720  703.2560
124.8590  702.4620
125.3470  701.6800
125.8350  700.9110
126.3240  700.1560
126.8140  699.4130
127.3040  698.6840
127.7950  697.9690
128.2870  697.2680
128.7790  696.5810
129.2720  695.9080
129.7660  695.2490
130.2610  694.6050
130.7560  693.9760
131.2520  693.3620
131.7490  692.7630
132.2460  692.1800
132.7440  691.6110
133.2430  691.0590
133.7430  690.5230
134.2430  690.0020
134.7450  689.4980
135.2470  689.0100
135.7500  688.5390
136.2530  688.0840
136.7580  687.6460
137.2630  687.2250
137.7690  686.8210
138.2750  686.4350
138.7830  686.0660
139.2910  685.7140
139.8000  685.3800
140.3100  685.0640
140.8210  684.7660
141.3330  684.4860
141.8450  684.2240
142.3590  683.9810
142.8730  683.7560
143.3880  683.5490
143.9040  683.3610
144.4200  683.1920
144.9380  683.0420
145.4560  682.9110
145.9750  682.7980
146.4960  682.7050
147.0170  682.6310
147.5390  682.5760
148.0610  682.5410
148.5850  682.5250
149.1100  682.5280
149.6350  682.5510
150.1610  682.5940
150.6890  682.6560
151.2170  682.7380
151.7460  682.8390
152.2760  682.9600
152.8070  683.1020
153.3390  683.2620
153.8720  683.4430
154.4050  683.6440
154.9400  683.8640
155.4760  684.1040
156.0120  684.3640
156.5500  684.6430
157.0880  684.9430
157.6270  685.2620
158.1680  685.6010
158.7090  685.9600
159.2510  686.3380
159.7940  686.7360
160.3390  687.1530
160.8840  687.5910
161.4300  688.0470
161.9770  688.5230
162.5250  689.0180
163.0740  689.5320
163.6240  690.0660
164.1750  690.6190
164.7270  691.1900
165.2800  691.7810
165.8340  692.3900
166.3890  693.0190
166.9450  693.6650
167.5020  694.3310
168.0590  695.0140
168.6180  695.7170
169.1780  696.4370
169.7390  697.1750
170.3010  697.9320
170.8640  698.7070
171.4280  699.4990
171.9930  700.3090
172.5590  701.1360
173.1260  701.9820
173.6940  702.8450
174.2620  703.7250
174.8320  704.6220
175.4030  705.5370
175.9750  706.4690
176.5480  707.4170
177.1220  708.3830
177.6970  709.3670
178.2730  710.3660
178.8500  711.3830
179.4280  712.4170
180.0070  713.4680
180.5870  714.5350
181.1680  715.6200
181.7500  716.7210
182.3330  717.8390
182.9170  718.9750
183.5020  720.1270
184.0880  721.2960
184.6750  722.4830
185.2630  723.6870
185.8510  724.9070
186.4410  726.1460
187.0320  727.4020
187.6240  728.6750
188.2170  729.9660
188.8110  731.2760
189.4060  732.6030
190.0010  733.9480
190.5980  735.3110
191.1960  736.6930
191.7940  738.0940
192.3940  739.5130
192.9950  740.9510
193.5960  742.4080
194.1980  743.8840
194.8020  745.3790
195.4060  746.8940
196.0110  748.4280
196.6180  749.9820
197.2250  751.5560
197.8330  753.1490
198.4420  754.7620
199.0510  756.3950
199.6620  758.0480
200.2740  759.7210
200.8860  761.4130
201.5000  763.1260
202.1140  764.8580
202.7290  766.6090
203.3450  768.3800
203.9620  770.1700
204.5800  771.9790
205.1980  773.8070
205.8180  775.6530
206.4380  777.5170
207.0590  779.3990
207.6810  781.2970
208.3030  783.2130
208.9270  785.1440
209.5510  787.0910
210.1760  789.0530
210.8020  791.0290
211.4280  793.0180
212.0560  795.0200
212.6840  797.0330
213.3120  799.0580
213.9420  801.0920
214.5720  803.1350
215.2030  805.1860
215.8350  807.2430
216.4670  809.3060
217.1000  811.3740
217.7340  813.4440
218.3680  815.5170
219.0030  817.5900
219.6390  819.6620
220.2750  821.7320
220.9120  823.7980
221.5490  825.8590
222.1880  827.9140
222.8260  829.9610
223.4650  831.9980
224.1050  834.0250
224.7460  836.0390
225.3870  838.0380
226.0280  840.0230
226.6700  841.9900
227.3120  843.9380
227.9550  845.8660
228.5990  847.7730
229.2430  849.6570
229.8870  851.5150
230.5320  853.3480
231.1770  855.1540
231.8230  856.9300
232.4690  858.6770
233.1150  860.3910
233.7620  862.0740
234.4090  863.7210
235.0570  865.3340
235.7040  866.9100
236.3530  868.4490
237.0010  869.9500
237.6500  871.4110
238.2990  872.8310
238.9480  874.2100
239.5980  875.5480
240.2480  876.8420
240.8980  878.0930
241.5480  879.3000
242.1980  880.4610
242.8490  881.5780
243.5000  882.6490
244.1510  883.6740
244.8020  884.6520
245.4530  885.5840
246.1050  886.4680
246.7560  887.3060
247.4080  888.0960
248.0590  888.8390
248.7110  889.5340
249.3630  890.1830
250.0150  890.7840
250.6660  891.3370
251.3180  891.8440
251.9700  892.3040
252.6220  892.7180
253.2730  893.0860
253.9250  893.4070
254.5770  893.6830
255.2280  893.9140
255.8790  894.1000
256.5310  894.2420
257.1820  894.3400
257.8330  894.3950
258.4840  894.4070
259.1340  894.3770
259.7850  894.3060
260.4350  894.1930
261.0850  894.0400
261.7350  893.8480
262.3850  893.6160
263.0340  893.3460
263.6830  893.0380
264.3320  892.6930
264.9800  892.3120
265.6280  891.8950
266.2760  891.4440
266.9240  890.9590
267.5710  890.4410
268.2180  889.8900
268.8640  889.3090
269.5100  888.6960
270.1560  888.0540
270.8010  887.3830
271.4460  886.6840
272.0900  885.9580
272.7340  885.2060
273.3770  884.4290
274.0200  883.6280
274.6630  882.8040
275.3050  881.9580
275.9460  881.0910
276.5870  880.2040
277.2270  879.2980
277.8670  878.3740
278.5070  877.4330
279.1450  876.4770
279.7830  875.5060
280.4210  874.5220
281.0580  873.5260
281.6940  872.5180
282.3300  871.5000
282.9650  870.4730
283.5990  869.4390
284.2330  868.3980
284.8660  867.3510
285.4980  866.3000
286.1300  865.2450
286.7610  864.1890
287.3910  863.1310
288.0200  862.0730
288.6490  861.0170
289.2770  859.9620
289.9050  858.9100
290.5310  857.8620
291.1570  856.8200
291.7820  855.7830
292.4060  854.7520
293.0300  853.7300
293.6520  852.7160
294.2740  851.7110
294.8950  850.7160
295.5150  849.7310
296.1350  848.7580
296.7530  847.7970
297.3710  846.8480
297.9880  845.9120
298.6040  844.9890
299.2190  844.0800
299.8330  843.1850
300.4460  842.3040
301.0590  841.4380
301.6710  840.5880
302.2810  839.7520
302.8910  838.9310
303.5000  838.1260
304.1080  837.3350
304.7150  836.5600
305.3210  835.8000
305.9270  835.0550
306.5310  834.3250
307.1340  833.6100
307.7370  832.9090
308.3380  832.2220
308.9390  831.5490
309.5380  830.8900
310.1370  830.2440
310.7350  829.6110
311.3310  828.9910
311.9270  828.3820
312.5220  827.7850
313.1160  827.1990
313.7090  826.6250
314.3010  826.0600
314.8910  825.5050
315.4810  824.9600
316.0700  824.4240
316.6580  823.8960
317.2450  823.3760
317.8310  822.8640
318.4160  822.3590
319.0000  821.8610
319.5830  821.3690
320.1650  820.8830
320.7460  820.4030
321.3260  819.9280
321.9050  819.4580
322.4830  818.9920
323.0600  818.5320
323.6360  818.0750
324.2110  817.6220
324.7850  817.1740
325.3580  816.7290
325.9290  816.2870
326.5000  815.8490
327.0700  815.4150
327.6390  814.9830
328.2070  814.5550
328.7740  814.1310
329.3400  813.7100
329.9050  813.2920
330.4690  812.8780
331.0320  812.4680
331.5940  812.0620
332.1540  811.6600
332.7140  811.2620
333.2730  810.8690
333.8310  810.4810
334.3880  810.0980
334.9440  809.7200
335.4990  809.3480
336.0530  808.9820
336.6060  808.6230
337.1580  808.2700
337.7090  807.9240
338.2590  807.5860
338.8080  807.2550
339.3560  806.9320
339.9030  806.6180
340.4490  806.3130
340.9940  806.0170
341.5380  805.7310
342.0820  805.4540
342.6240  805.1880
343.1650  804.9320
343.7050  804.6870
344.2450  804.4530
344.7830  804.2310
345.3210  804.0210
345.8570  803.8220
346.3930  803.6360
346.9270  803.4630
347.4610  803.3020
347.9940  803.1540
348.5260  803.0190
349.0570  802.8970
349.5870  802.7880
350.1160  802.6930
350.6440  802.6120
351.1710  802.5440
351.6980  802.4900
352.2230  802.4490
352.7480  802.4220
353.2710  802.4090
353.7940  802.4090
354.3160  802.4220
354.8370  802.4490
355.3570  802.4890
355.8770  802.5420
356.3950  802.6080
356.9130  802.6870
357.4290  802.7780
357.9450  802.8820
358.4600  802.9980
358.9740  803.1260
359.4880  803.2650
  