 93.000 93.000 93.000 93.000 93.000 93.000 93.000 93.000 93.000 93.000
 93.000 93.000 93.000 93.000 93.000 93.000 93.000 93.000 93.000 93.000
 93.000 93.000 93.000 93.000 93.000 93.000 93.000 93.000 93.000 93.000
 93.000 93.000 93.000 93.000 93.000 93.000 93.000 93.000 93.000 93.000
 93.000 93.000 93.000 93.000 93.000 93.000 93.000 93.000 93.000 93.000
 93.000 93.000 93.000 93.000 93.000 93.000 93.000 93.000 93.000 93.000
 93.000 93.000
 93.000 93.000 93.000 93.000 93.000 93.000 93.000 93.000 93.000 93.000
 93.000 93.000 93.000 93.000 93.000 93.000 93.000 93.000 93.000 93.000
 93.000 93.000 93.000 93.000 93.000 93.000 93.000 93.000 93.000 93.000
 93.000 93.000 93.000 93.000 93.000 93.000 93.000 93.000 93.000 93.000
 93.000 93.000 93.000 93.000 93.000 93.000 93.000 93.000 93.000 93.000
 93.000 93.000 93.000 93.000 93.000 93.000 93.000 93.000 93.000 93.000
 93.000 93.000
 93.000 93.000 93.000 93.000 93.000 93.000 93.000 93.000 93.000 93.000
 93.000 93.000 93.000 93.000 93.000 93.000 93.000 93.000 93.000 93.000
 93.000 93.000 93.000 93.000 93.000 93.000 93.000 93.000 93.000 93.000
 93.000 93.000 93.000 93.000 93.000 93.000 93.000 93.000 93.000 93.000
 93.000 93.000 93.000 93.000 93.000 93.000 93.000 93.000 93.000 93.000
 93.000 93.000 93.000 93.000 93.000 93.000 93.000 93.000 93.000 93.000
 93.000 93.000
 93.000 93.000 93.000 93.000 93.000 93.000 93.000 93.000 93.000 93.000
 93.000 93.000 93.000 93.000 93.000 93.000 93.000 93.000 93.000 93.000
 93.000 93.000 93.000 93.000 93.000 93.000 93.000 93.000 93.000 93.000
 93.000 93.000 93.000 93.000 93.000 93.000 93.000 93.000 93.000 93.000
 93.000 93.000 93.000 93.000 93.000 93.000 93.000 93.000 93.000 93.000
 93.000 93.000 93.000 93.000 93.000 93.000 93.000 93.000 93.000 93.000
 93.000 93.000
 93.000 93.000 93.000 93.000 93.000 93.000 93.000 93.000 93.000 93.000
 93.000 93.000 93.000 93.000 93.000 93.000 93.000 93.000 93.000 93.000
 93.000 93.000 93.000 93.000 93.000 93.000 93.000 93.000 93.000 93.000
 93.000 93.000 93.000 93.000 93.000 93.000 93.000 93.000 93.000 93.000
 93.000 93.000 93.000 93.000 93.000 93.000 93.000 93.000 93.000 93.000
 93.000 93.000 93.000 93.000 93.000 93.000 93.000 93.000 93.000 93.000
 93.000 93.000
 93.000 93.000 93.000 93.000 93.000 93.000 93.000 93.000 93.000 93.000
 93.000 93.000 93.000 93.000 93.000 93.000 93.000 93.000 93.000 93.000
 93.000 93.000 93.000 93.000 93.000 93.000 93.000 93.000 93.000 93.000
 93.000 93.000 93.000 93.000 93.000 93.000 93.000 93.000 93.000 93.000
 93.000 93.000 93.000 93.000 93.000 93.000 93.000 93.000 93.000 93.000
 93.000 93.000 93.000 93.000 93.000 93.000 93.000 93.000 93.000 93.000
 93.000 93.000
 93.000 93.000 93.000 93.000 93.000 93.000 93.000 93.000 93.000 93.000
 93.000 93.000 93.000 93.000 93.000 93.000 93.000 93.000 93.000 93.000
 93.000 93.000 93.000 93.000 93.000 93.000 93.000 93.000 93.000 93.000
 93.000 93.000 93.000 93.000 93.000 93.000 93.000 93.000 93.000 93.000
 93.000 93.000 93.000 93.000 93.000 93.000 93.000 93.000 93.000 93.000
 93.000 93.000 93.000 93.000 93.000 93.000 93.000 93.000 93.000 93.000
 93.000 93.000
 93.000 93.000 93.000 93.000 93.000 93.000 93.000 93.000 93.000 93.000
 93.000 93.000 93.000 93.000 93.000 93.000 93.000 93.000 93.000 93.000
 93.000 93.000 93.000 93.000 93.000 93.000 93.000 93.000 93.000 93.000
 93.000 93.000 93.000 93.000 93.000 93.000 93.000 93.000 93.000 93.000
 93.000 93.000 93.000 93.000 93.000 93.000 93.000 93.000 93.000 93.000
 93.000 93.000 93.000 93.000 93.000 93.000 93.000 93.000 93.000 93.000
 93.000 93.000
 93.000 93.000 93.000 93.000 93.000 93.000 93.000 93.000 93.000 93.000
 93.000 93.000 93.000 93.000 93.000 93.000 93.000 93.000 93.000 93.000
 93.000 93.000 93.000 93.000 93.000 93.000 93.000 93.000 93.000 93.000
 93.000 93.000 93.000 93.000 93.000 93.000 93.000 93.000 93.000 93.000
 93.000 93.000 93.000 93.000 93.000 93.000 93.000 93.000 93.000 93.000
 93.000 93.000 93.000 93.000 93.000 93.000 93.000 93.000 93.000 93.000
 93.000 93.000
 93.000 93.000 93.000 93.000 93.000 93.000 93.000 93.000 93.000 93.000
 93.000 93.000 93.000 93.000 93.000 93.000 93.000 93.000 93.000 93.000
 93.000 93.000 93.000 93.000 93.000 93.000 93.000 93.000 93.000 93.000
 93.000 93.000 93.000 93.000 93.000 93.000 93.000 93.000 93.000 93.000
 93.000 93.000 93.000 93.000 93.000 93.000 93.000 93.000 93.000 93.000
 93.000 93.000 93.000 93.000 93.000 93.000 93.000 93.000 93.000 93.000
 93.000 93.000
 93.000 93.000 93.000 93.000 93.000 93.000 93.000 93.000 93.000 93.000
 93.000 93.000 93.000 93.000 93.000 93.000 93.000 93.000 93.000 93.000
 93.000 93.000 93.000 93.000 93.000 93.000 93.000 93.000 93.000 93.000
 93.000 93.000 93.000 93.000 93.000 93.000 93.000 93.000 93.000 93.000
 93.000 93.000 93.000 93.000 93.000 93.000 93.000 93.000 93.000 93.000
 93.000 93.000 93.000 93.000 93.000 93.000 93.000 93.000 93.000 93.000
 93.000 93.000
 93.000 93.000 93.000 93.000 93.000 93.000 93.000 93.000 93.000 93.000
 93.000 93.000 93.000 93.000 93.000 93.000 93.000 93.000 93.000 93.000
 93.000 93.000 93.000 93.000 93.000 93.000 93.000 93.000 93.000 93.000
 93.000 93.000 93.000 93.000 93.000 93.000 93.000 93.000 93.000 93.000
 93.000 93.000 93.000 93.000 93.000 93.000 93.000 93.000 93.000 93.000
 93.000 93.000 93.000 93.000 93.000 93.000 93.000 93.000 93.000 93.000
 93.000 93.000
 93.000 93.000 93.000 93.000 93.000 93.000 93.000 93.000 93.000 93.000
 93.000 93.000 93.000 93.000 93.000 93.000 93.000 93.000 93.000 93.000
 93.000 93.000 93.000 93.000 93.000 93.000 93.000 93.000 93.000 93.000
 93.000 93.000 93.000 93.000 93.000 93.000 93.000 93.000 93.000 93.000
 93.000 93.000 93.000 93.000 93.000 93.000 93.000 93.000 93.000 93.000
 93.000 93.000 93.000 93.000 93.000 93.000 93.000 93.000 93.000 93.000
 93.000 93.000
 93.000 93.000 93.000 93.000 93.000 93.000 93.000 93.000 93.000 93.000
 93.000 93.000 93.000 93.000 93.000 93.000 93.000 93.000 93.000 93.000
 93.000 93.000 93.000 93.000 93.000 93.000 93.000 93.000 93.000 93.000
 93.000 93.000 93.000 93.000 93.000 93.000 93.000 93.000 93.000 93.000
 93.000 93.000 93.000 93.000 93.000 93.000 93.000 93.000 93.000 93.000
 93.000 93.000 93.000 93.000 93.000 93.000 93.000 93.000 93.000 93.000
 93.000 93.000
 93.000 93.000 93.000 93.000 93.000 93.000 93.000 93.000 93.000 93.000
 93.000 93.000 93.000 93.000 93.000 93.000 93.000 93.000 93.000 93.000
 93.000 93.000 93.000 93.000 93.000 93.000 93.000 93.000 93.000 93.000
 93.000 93.000 93.000 93.000 93.000 93.000 93.000 93.000 93.000 93.000
 93.000 93.000 93.000 93.000 93.000 93.000 93.000 93.000 93.000 93.000
 93.000 93.000 93.000 93.000 93.000 93.000 93.000 93.000 93.000 93.000
 93.000 93.000
 93.000 93.000 93.000 93.000 93.000 93.000 93.000 93.000 93.000 93.000
 93.000 93.000 93.000 93.000 93.000 93.000 93.000 93.000 93.000 93.000
 93.000 93.000 93.000 93.000 93.000 93.000 93.000 93.000 93.000 93.000
 93.000 93.000 93.000 93.000 93.000 93.000 93.000 93.000 93.000 93.000
 93.000 93.000 93.000 93.000 93.000 93.000 93.000 93.000 93.000 93.000
 93.000 93.000 93.000 93.000 93.000 93.000 93.000 93.000 93.000 93.000
 93.000 93.000
 93.000 93.000 93.000 93.000 93.000 93.000 93.000 93.000 93.000 93.000
 93.000 93.000 93.000 93.000 93.000 93.000 93.000 93.000 93.000 93.000
 93.000 93.000 93.000 93.000 93.000 93.000 93.000 93.000 93.000 93.000
 93.000 93.000 93.000 93.000 93.000 93.000 93.000 93.000 93.000 93.000
 93.000 93.000 93.000 93.000 93.000 93.000 93.000 93.000 93.000 93.000
 93.000 93.000 93.000 93.000 93.000 93.000 93.000 93.000 93.000 93.000
 93.000 93.000
 93.000 93.000 93.000 93.000 93.000 93.000 93.000 93.000 93.000 93.000
 93.000 93.000 93.000 93.000 93.000 93.000 93.000 93.000 93.000 93.000
 93.000 93.000 93.000 93.000 93.000 93.000 93.000 93.000 93.000 93.000
 93.000 93.000 93.000 93.000 93.000 93.000 93.000 93.000 93.000 93.000
 93.000 93.000 93.000 93.000 93.000 93.000 93.000 93.000 93.000 93.000
 93.000 93.000 93.000 93.000 93.000 93.000 93.000 93.000 93.000 93.000
 93.000 93.000
 93.000 93.000 93.000 93.000 93.000 93.000 93.000 93.000 93.000 93.000
 93.000 93.000 93.000 93.000 93.000 93.000 93.000 93.000 93.000 93.000
 93.000 93.000 93.000 93.000 93.000 93.000 93.000 93.000 93.000 93.000
 93.000 93.000 93.000 93.000 93.000 93.000 93.000 93.000 93.000 93.000
 93.000 93.000 93.000 93.000 93.000 93.000 93.000 93.000 93.000 93.000
 93.000 93.000 93.000 93.000 93.000 93.000 93.000 93.000 93.000 93.000
 93.000 93.000
 93.000 93.000 93.000 93.000 93.000 93.000 93.000 93.000 93.000 93.000
 93.000 93.000 93.000 93.000 93.000 93.000 93.000 93.000 93.000 93.000
 93.000 93.000 93.000 93.000 93.000 93.000 93.000 93.000 93.000 93.000
 93.000 93.000 93.000 93.000 93.000 93.000 93.000 93.000 93.000 93.000
 93.000 93.000 93.000 93.000 93.000 93.000 93.000 93.000 93.000 93.000
 93.000 93.000 93.000 93.000 93.000 93.000 93.000 93.000 93.000 93.000
 93.000 93.000
 93.000 93.000 93.000 93.000 93.000 93.000 93.000 93.000 93.000 93.000
 93.000 93.000 93.000 93.000 93.000 93.000 93.000 93.000 93.000 93.000
 93.000 93.000 93.000 93.000 93.000 93.000 93.000 93.000 93.000 93.000
 93.000 93.000 93.000 93.000 93.000 93.000 93.000 93.000 93.000 93.000
 93.000 93.000 93.000 93.000 93.000 93.000 93.000 93.000 93.000 93.000
 93.000 93.000 93.000 93.000 93.000 93.000 93.000 93.000 93.000 93.000
 93.000 93.000
 93.000 93.000 93.000 93.000 93.000 93.000 93.000 93.000 93.000 93.000
 93.000 93.000 93.000 93.000 93.000 93.000 93.000 93.000 93.000 93.000
 93.000 93.000 93.000 93.000 93.000 93.000 93.000 93.000 93.000 93.000
 93.000 93.000 93.000 93.000 93.000 93.000 93.000 93.000 93.000 93.000
 93.000 93.000 93.000 93.000 93.000 93.000 93.000 93.000 93.000 93.000
 93.000 93.000 93.000 93.000 93.000 93.000 93.000 93.000 93.000 93.000
 93.000 93.000
 93.000 93.000 93.000 93.000 93.000 93.000 93.000 93.000 93.000 93.000
 93.000 93.000 93.000 93.000 93.000 93.000 93.000 93.000 93.000 93.000
 93.000 93.000 93.000 93.000 93.000 93.000 93.000 93.000 93.000 93.000
 93.000 93.000 93.000 93.000 93.000 93.000 93.000 93.000 93.000 93.000
 93.000 93.000 93.000 93.000 93.000 93.000 93.000 93.000 93.000 93.000
 93.000 93.000 93.000 93.000 93.000 93.000 93.000 93.000 93.000 93.000
 93.000 93.000
 93.000 93.000 93.000 93.000 93.000 93.000 93.000 93.000 93.000 93.000
 93.000 93.000 93.000 93.000 93.000 93.000 93.000 93.000 93.000 93.000
 93.000 93.000 93.000 93.000 93.000 93.000 93.000 93.000 93.000 93.000
 93.000 93.000 93.000 93.000 93.000 93.000 93.000 93.000 93.000 93.000
 93.000 93.000 93.000 93.000 93.000 93.000 93.000 93.000 93.000 93.000
 93.000 93.000 93.000 93.000 93.000 93.000 93.000 93.000 93.000 93.000
 93.000 93.000
 93.000 93.000 93.000 93.000 93.000 93.000 93.000 93.000 93.000 93.000
 93.000 93.000 93.000 93.000 93.000 93.000 93.000 93.000 93.000 93.000
 93.000 93.000 93.000 93.000 93.000 93.000 93.000 93.000 93.000 93.000
 93.000 93.000 93.000 93.000 93.000 93.000 93.000 93.000 93.000 93.000
 93.000 93.000 93.000 93.000 93.000 93.000 93.000 93.000 93.000 93.000
 93.000 93.000 93.000 93.000 93.000 93.000 93.000 93.000 93.000 93.000
 93.000 93.000
 93.000 93.000 93.000 93.000 93.000 93.000 93.000 93.000 93.000 93.000
 93.000 93.000 93.000 93.000 93.000 93.000 93.000 93.000 93.000 93.000
 93.000 93.000 93.000 93.000 93.000 93.000 93.000 93.000 93.000 93.000
 93.000 93.000 93.000 93.000 93.000 93.000 93.000 93.000 93.000 93.000
 93.000 93.000 93.000 93.000 93.000 93.000 93.000 93.000 93.000 93.000
 93.000 93.000 93.000 93.000 93.000 93.000 93.000 93.000 93.000 93.000
 93.000 93.000
 93.000 93.000 93.000 93.000 93.000 93.000 93.000 93.000 93.000 93.000
 93.000 93.000 93.000 93.000 93.000 93.000 93.000 93.000 93.000 93.000
 93.000 93.000 93.000 93.000 93.000 93.000 93.000 93.000 93.000 93.000
 93.000 93.000 93.000 93.000 93.000 93.000 93.000 93.000 93.000 93.000
 93.000 93.000 93.000 93.000 93.000 93.000 93.000 93.000 93.000 93.000
 93.000 93.000 93.000 93.000 93.000 93.000 93.000 93.000 93.000 93.000
 93.000 93.000
 93.000 93.000 93.000 93.000 93.000 93.000 93.000 93.000 93.000 93.000
 93.000 93.000 93.000 93.000 93.000 93.000 93.000 93.000 93.000 93.000
 93.000 93.000 93.000 93.000 93.000 93.000 93.000 93.000 93.000 93.000
 93.000 93.000 93.000 93.000 93.000 93.000 93.000 93.000 93.000 93.000
 93.000 93.000 93.000 93.000 93.000 93.000 93.000 93.000 93.000 93.000
 93.000 93.000 93.000 93.000 93.000 93.000 93.000 93.000 93.000 93.000
 93.000 93.000
 93.000 93.000 93.000 93.000 93.000 93.000 93.000 93.000 93.000 93.000
 93.000 93.000 93.000 93.000 93.000 93.000 93.000 93.000 93.000 93.000
 93.000 93.000 93.000 93.000 93.000 93.000 93.000 93.000 93.000 93.000
 93.000 93.000 93.000 93.000 93.000 93.000 93.000 93.000 93.000 93.000
 93.000 93.000 93.000 93.000 93.000 93.000 93.000 93.000 93.000 93.000
 93.000 93.000 93.000 93.000 93.000 93.000 93.000 93.000 93.000 93.000
 93.000 93.000
 93.000 93.000 93.000 93.000 93.000 93.000 93.000 93.000 93.000 93.000
 93.000 93.000 93.000 93.000 93.000 93.000 93.000 93.000 93.000 93.000
 93.000 93.000 93.000 93.000 93.000 93.000 93.000 93.000 93.000 93.000
 93.000 93.000 93.000 93.000 93.000 93.000 93.000 93.000 93.000 93.000
 93.000 93.000 93.000 93.000 93.000 93.000 93.000 93.000 93.000 93.000
 93.000 93.000 93.000 93.000 93.000 93.000 93.000 93.000 93.000 93.000
 93.000 93.000
 93.000 93.000 93.000 93.000 93.000 93.000 93.000 93.000 93.000 93.000
 93.000 93.000 93.000 93.000 93.000 93.000 93.000 93.000 93.000 93.000
 93.000 93.000 93.000 93.000 93.000 93.000 93.000 93.000 93.000 93.000
 93.000 93.000 93.000 93.000 93.000 93.000 93.000 93.000 93.000 93.000
 93.000 93.000 93.000 93.000 93.000 93.000 93.000 93.000 93.000 93.000
 93.000 93.000 93.000 93.000 93.000 93.000 93.000 93.000 93.000 93.000
 93.000 93.000
 93.000 93.000 93.000 93.000 93.000 93.000 93.000 93.000 93.000 93.000
 93.000 93.000 93.000 93.000 93.000 93.000 93.000 93.000 93.000 93.000
 93.000 93.000 93.000 93.000 93.000 93.000 93.000 93.000 93.000 93.000
 93.000 93.000 93.000 93.000 93.000 93.000 93.000 93.000 93.000 93.000
 93.000 93.000 93.000 93.000 93.000 93.000 93.000 93.000 93.000 93.000
 93.000 93.000 93.000 93.000 93.000 93.000 93.000 93.000 93.000 93.000
 93.000 93.000
 93.000 93.000 93.000 93.000 93.000 93.000 93.000 93.000 93.000 93.000
 93.000 93.000 93.000 93.000 93.000 93.000 93.000 93.000 93.000 93.000
 93.000 93.000 93.000 93.000 93.000 93.000 93.000 93.000 93.000 93.000
 93.000 93.000 93.000 93.000 93.000 93.000 93.000 93.000 93.000 93.000
 93.000 93.000 93.000 93.000 93.000 93.000 93.000 93.000 93.000 93.000
 93.000 93.000 93.000 93.000 93.000 93.000 93.000 93.000 93.000 93.000
 93.000 93.000
 93.000 93.000 93.000 93.000 93.000 93.000 93.000 93.000 93.000 93.000
 93.000 93.000 93.000 93.000 93.000 93.000 93.000 93.000 93.000 93.000
 93.000 93.000 93.000 93.000 93.000 93.000 93.000 93.000 93.000 93.000
 93.000 93.000 93.000 93.000 93.000 93.000 93.000 93.000 93.000 93.000
 93.000 93.000 93.000 93.000 93.000 93.000 93.000 93.000 93.000 93.000
 93.000 93.000 93.000 93.000 93.000 93.000 93.000 93.000 93.000 93.000
 93.000 93.000
 93.000 93.000 93.000 93.000 93.000 93.000 93.000 93.000 93.000 93.000
 93.000 93.000 93.000 93.000 93.000 93.000 93.000 93.000 93.000 93.000
 93.000 93.000 93.000 93.000 93.000 93.000 93.000 93.000 93.000 93.000
 93.000 93.000 93.000 93.000 93.000 93.000 93.000 93.000 93.000 93.000
 93.000 93.000 93.000 93.000 93.000 93.000 93.000 93.000 93.000 93.000
 93.000 93.000 93.000 93.000 93.000 93.000 93.000 93.000 93.000 93.000
 93.000 93.000
 93.000 93.000 93.000 93.000 93.000 93.000 93.000 93.000 93.000 93.000
 93.000 93.000 93.000 93.000 93.000 93.000 93.000 93.000 93.000 93.000
 93.000 93.000 93.000 93.000 93.000 93.000 93.000 93.000 93.000 93.000
 93.000 93.000 93.000 93.000 93.000 93.000 93.000 93.000 93.000 93.000
 93.000 93.000 93.000 93.000 93.000 93.000 93.000 93.000 93.000 93.000
 93.000 93.000 93.000 93.000 93.000 93.000 93.000 93.000 93.000 93.000
 93.000 93.000
