Solar Flux Data for 36 spectral intervals
c1       p1        c2        p2
71.663	-0.03564	66.341	-0.03277
44.377	-0.02201	40.919	-0.02006
44.414	-0.02201	40.945	-0.02007
51.521	-0.02555	51.255	-0.02519
46.031	-0.02284	46.063	-0.02259
49.024	-0.02434	46.236	-0.02271
45.014	-0.02233	42.641	-0.02091
21.874	-0.01088	20.451	-0.00977
20.110	-0.00988	22.8487	-0.01097
5.054	-0.00249	6.114	-0.00256
37.625	-0.01864	38.929	-0.01899
9.400	-0.00455	9.676	-0.00434
7.753	-0.00381	8.8459	-0.00393
0.0	0.0		0.0	0.0
1.501	-0.00065	11.051	-0.00501
7.619	-0.00374	8.748	-0.00388
11.169	-0.00548	12.359	-0.00568
11.918	-0.00585	13.1178	-0.00606
8.94	-0.00439	10.092	-0.00455
8.89	-0.00436	10.032	-0.00452
1.098	-0.00054	2.113	-0.00056
33.462	-0.01658	34.418	-0.01675
6.509	-0.00320	7.617	-0.00331
4.871	-0.00239	5.960	-0.00248
