Water Ice at 200K, 
wl, nr, ni
0.263 1.34553873651 1.99999999201e-11
0.321 1.32987081038 1.99999999201e-11
0.44 1.31662184905 6.2747041337e-11
0.46 1.31537943044 1.33347908971e-10
0.5 1.31330470596 5.88768809989e-10
0.6 1.30964692098 5.7624266746e-09
0.63 1.30880765892 1.03891643886e-08
0.7 1.30713468637 2.89949400626e-08
0.8 1.3051363807 1.32856323169e-07
0.9 1.30336980548 4.1905247785e-07
0.95 1.30251587809 6.18839560018e-07
1.0 1.30166656598 1.63181337825e-06
1.05 1.3008162055 2.16884473971e-06
1.1 1.29994606111 1.71823629e-06
1.15 1.29904528083 2.4440656827e-06
1.19 1.29830624251 5.7376523971e-06
1.25 1.29714440112 1.28284331968e-05
1.3 1.29613092079 1.31786460575e-05
1.415 1.29345611336 4.63912181735e-05
1.55 1.29046956279 0.000490803390629
1.675 1.2869237056 0.000241584534977
1.75 1.2843325748 0.000163321755852
1.9 1.27783112415 0.000335073671975
1.92 1.27680285776 0.000561768871795
2.13 1.2669554252 0.000551044991899
2.2 1.26155563963 0.000240530789327
2.3 1.25235041889 0.000279450617829
2.4 1.24093960993 0.000552579881404
2.48 1.22901915245 0.000656093974871
2.55 1.21550498977 0.000689306269554
2.64 1.19057220479 0.00076246065221
2.7 1.16606558701 0.00138586674564
2.75 1.13481548779 0.00279588848733
2.8 1.0885817184 0.0133876125818
2.85 1.02350904816 0.0459954562726
2.92 0.922109051175 0.201070318987
2.94 0.93610666748 0.265127376775
3.05 1.04765489857 0.609861268803
3.1 1.4109333099 0.713712915376
3.2 1.7395283635 0.356262289511
3.3 1.60731604939 0.0792926220462
3.4 1.51401750993 0.0294026516139
3.5 1.46055814406 0.0118659783375
3.6 1.42532824405 0.00560659675995
3.7 1.40082437897 0.00542876660614
3.8 1.38343766636 0.00719983804255
3.9 1.37105592207 0.00964947518167
4.0 1.36153282457 0.0128660780583
4.0085 1.36084704205 0.0131230602905
4.0179 1.36010559484 0.013432900646
4.0273 1.35936723569 0.0137474204887
4.0367 1.35862887654 0.0140619403314
4.0461 1.35790074431 0.0143743092668
4.0555 1.35731555827 0.0146564934885
4.0649 1.35673037224 0.0149386777102
4.0743 1.3561451862 0.0152208619318
4.0837 1.35554333274 0.0154883025106
4.0931 1.35489326444 0.0157129350768
4.1024 1.35425012123 0.0159351746619
4.1118 1.35360001996 0.0161598186233
4.1212 1.35293257556 0.0164185337189
4.1306 1.35223906591 0.0167283747698
4.14 1.35154555627 0.0170382158207
4.1494 1.35085201144 0.0173480725892
4.1588 1.35023765345 0.0177398144582
4.1682 1.34969598464 0.0182067702257
4.1776 1.34915431584 0.0186737259931
4.187 1.34861264703 0.0191406817606
4.1964 1.34811687508 0.0195784877173
4.2057 1.34765577093 0.0199929558521
4.2151 1.34718970182 0.0204118868033
4.2245 1.34672360906 0.020830839006
4.2339 1.34630093921 0.0212646576869
4.2433 1.34590174494 0.0217065294508
4.2527 1.34550255066 0.0221484012146
4.2621 1.34510333613 0.0225902953938
4.2715 1.34472808071 0.0231002577816
4.2809 1.344364833 0.0236443744015
4.2903 1.34400158529 0.0241884910213
4.2997 1.34363833758 0.0247326076412
4.3091 1.34339196166 0.025342387813
4.3184 1.34321137033 0.0259810999939
4.3278 1.34302883448 0.0266266895556
4.3372 1.34284628936 0.0272723118667
4.3466 1.34284255328 0.0278851148051
4.356 1.34296725939 0.0284743652188
4.3654 1.3430919655 0.0290636156324
4.3748 1.34321667794 0.0296528959376
4.3842 1.34336590147 0.0301911023547
4.3936 1.34354038223 0.0306767245187
4.403 1.34371486299 0.0311623466828
4.4124 1.34388934375 0.0316479688468
4.4217 1.34418007317 0.032123326335
4.4311 1.34468694631 0.0325945492241
4.4405 1.34519381946 0.0330657721131
4.4499 1.34570071832 0.0335370189063
4.4593 1.34623656027 0.0339116269265
4.4687 1.34689387128 0.0338811193336
4.4781 1.34755118228 0.0338506117407
4.4875 1.34820852663 0.0338201026002
4.4969 1.34886583764 0.0337895950073
4.5063 1.34945156174 0.0334271310871
4.5157 1.35003682533 0.0330625317455
4.525 1.35061588387 0.0327017979375
4.5344 1.35120114747 0.0323371985959
4.5438 1.35160467983 0.0318417507364
4.5532 1.35194625471 0.031301692798
4.5626 1.35228784692 0.0307616074635
4.572 1.35262942181 0.030221549525
4.5814 1.35287888525 0.0296079428408
4.5908 1.35302500341 0.0289118174723
4.6002 1.35317112899 0.0282156567908
4.6096 1.35331724716 0.0275195314223
4.619 1.35341216149 0.0268180899534
4.6284 1.35323743377 0.0260886536225
4.6377 1.35306455854 0.0253669508783
4.6471 1.35288983082 0.0246375145474
4.6565 1.3527151031 0.0239080782165
4.6659 1.35238872774 0.0232762195785
4.6753 1.35202420604 0.02266895966
4.6847 1.35165968434 0.0220616997415
4.6941 1.35129516263 0.021454439823
4.7035 1.35087828688 0.0209157694367
4.7129 1.35038591564 0.020475951346
4.7223 1.34989356937 0.0200361555653
4.7317 1.34940122311 0.0195963597845
4.741 1.34891409677 0.0191612267805
4.7504 1.34845423805 0.0188179261997
4.7598 1.34799533969 0.0184774780909
4.7692 1.34753644133 0.0181370299822
4.7786 1.34707751968 0.0177965646032
4.788 1.34660160942 0.0174662794344
4.7974 1.34610897645 0.0171459844326
4.8068 1.34561634349 0.0168256894307
4.8162 1.34512371052 0.0165053944289
4.8256 1.34463105257 0.0161850831792
4.835 1.34409012082 0.015936559964
4.8444 1.34354908596 0.0156881899904
4.8537 1.34301378722 0.0154424532702
4.8631 1.34247275235 0.0151940832966
4.8725 1.34192800448 0.0149748758577
4.8819 1.34137853902 0.0147927211626
4.8913 1.34082904569 0.0146105572272
4.9007 1.34027958023 0.0144284025322
4.9101 1.33973011476 0.0142462478371
4.9195 1.33917191886 0.0140950607148
4.9289 1.33861223349 0.013949156837
4.9383 1.33805251973 0.0138032455578
4.9477 1.33749283436 0.0136573416801
4.957 1.33693229967 0.0135186173304
4.9664 1.33634104174 0.013398756286
4.9758 1.3357498138 0.0132789013216
4.9852 1.33515858586 0.0131590463571
4.9946 1.33456735792 0.0130391913927
5.5 1.30518995968 0.0230723597793
6.0 1.29860931435 0.0645709816877
6.5 1.32474985616 0.0686990783382
7.824 1.31838111481 0.0414332364372
7.94819 1.31433196806 0.0404146515608
8.07639 1.30984305609 0.0403188233048
8.20879 1.30630842968 0.0404844700853
8.3456 1.30187786942 0.0398157131366
8.48705 1.29663349196 0.039792476998
8.63338 1.29090507338 0.0407703172431
8.78484 1.28552087139 0.042279582966
8.94171 1.28104996836 0.0432368296101
9.10429 1.27651667519 0.0422231142305
9.27289 1.26813203027 0.0374353390924
9.44785 1.25317245543 0.032462969886
9.62954 1.23131827656 0.0321909488907
9.81835 1.20445542998 0.0379852785429
10.0147 1.17357045195 0.0512973464021
10.2191 1.13592472662 0.0752169577209
10.432 1.09732154564 0.123087125415
10.654 1.07505093841 0.200585559526
10.8856 1.09475997507 0.284008987611
11.1275 1.148552969 0.353063044066
11.3804 1.20832910912 0.397218483498
11.645 1.27754372908 0.426753729073
11.9223 1.35031952974 0.439546385664
12.2131 1.42188062564 0.422111746284
12.5184 1.49438176564 0.403689116126
12.8394 1.54560766002 0.350966592689
13.8 1.59062950287 0.214658060159
14.8 1.57109359919 0.128256532226
15.8 1.5380765636 0.0869562476883
16.8 1.5161684808 0.0666055399267
17.8834 1.50164565635 0.0530262762604
18.5458 1.4960727719 0.0372963225679
19.2591 1.47615975993 0.0221648142671
20.0294 1.4589855126 0.0200347317283
20.864 1.44391880955 0.0167600790628
21.7711 1.4282884515 0.01522911453
22.7607 1.41191239849 0.014392769849
23.8446 1.39380119504 0.0153756768674
25.0368 1.37416416538 0.0191063292904
25.641 1.36467126254 0.0217979953166
26.3158 1.35430471118 0.0250473177575
27.027 1.34380705582 0.0285912871898
27.7778 1.33252280297 0.0319772599008
28.5714 1.31988623789 0.0347956760864
29.4118 1.30451088396 0.0372006319273
30.303 1.28370189188 0.0399266553652
31.25 1.25568995147 0.0451018842293
32.2581 1.21502915163 0.05985663997
33.3333 1.17947381598 0.104743813036
34.4828 1.16101053485 0.144867492933
35.7143 1.13408764517 0.186410043168
37.037 1.11850787733 0.253782013547
38.4615 1.11064211077 0.320804441635
40.0 1.10786461419 0.382274550439
41.6667 1.07835340096 0.480840267741
43.4783 1.04460182416 0.720978977621
44.46 1.20306010188 0.951220536478
45.4545 1.50219154174 0.968497128237
47.619 1.72220015581 0.733432959977
50.0 1.79530613426 0.569796758876
50.6172 1.79103459288 0.535498991264
52.7692 1.79244744325 0.463776734994
55.0128 1.81225834643 0.390509240974
57.3517 1.73072681754 0.309708608279
59.7901 1.65655302616 0.364095730098
62.3321 1.68823837047 0.448386372961
64.9822 1.7831542533 0.470380708661
67.745 1.87286211219 0.417551726495
70.6253 1.90916122124 0.338093510259
73.628 1.90555290559 0.283459967421
76.7584 1.8984505229 0.240075704288
80.0219 1.88451661697 0.20293981065
83.4241 1.87114186528 0.182549034014
86.9709 1.85958429662 0.161177991527
90.6686 1.84345097632 0.148551879011
94.5235 1.83243730193 0.141671925621
98.5423 1.82525922361 0.137846044334
