Water Ice at 220K, 
wl, nr, ni
0.263 1.34483873956 1.99999999201e-11
0.321 1.32916466782 1.99999999201e-11
0.44 1.31593186568 6.2747041337e-11
0.46 1.31468362988 1.33347908971e-10
0.5 1.31261472259 5.88768809989e-10
0.6 1.30896135148 5.7624266746e-09
0.63 1.30812767862 1.03891643886e-08
0.7 1.30645509174 2.89949400626e-08
0.8 1.30446814902 1.32856323169e-07
0.9 1.30271440452 4.1905247785e-07
0.95 1.30187592355 6.18839560018e-07
1.0 1.30103143416 1.63181337825e-06
1.05 1.30018618441 2.16884473971e-06
1.1 1.29931915715 1.71823629e-06
1.15 1.29843520833 2.4440656827e-06
1.19 1.29769624858 5.7376523971e-06
1.25 1.29655443434 1.28284331968e-05
1.3 1.29555084838 1.31786460575e-05
1.415 1.29290618423 4.63912181735e-05
1.55 1.28996764753 0.000464220664117
1.675 1.28642374184 0.000227413532995
1.75 1.28387214221 0.000159950648648
1.9 1.27740113625 0.000344243207999
1.92 1.2763822949 0.00059742358087
2.13 1.26667786611 0.000542668885247
2.2 1.26134387305 0.000244989106925
2.3 1.25220957485 0.000280664010026
2.4 1.24085524709 0.000561866697814
2.48 1.22899912987 0.000680822474303
2.55 1.21549840622 0.000716771588895
2.64 1.19042490244 0.000824811393752
2.7 1.16543493235 0.00164026938835
2.75 1.13357473295 0.00395130250687
2.8 1.08698941226 0.0165791762383
2.85 1.02287989199 0.0529116664864
2.92 0.932837817776 0.210772312118
2.94 0.948827675524 0.271736140792
3.05 1.08551297681 0.602382168032
3.1 1.41904711519 0.669150765279
3.2 1.70772636248 0.333171530414
3.3 1.59536532451 0.0858364098404
3.4 1.50937388686 0.0330457502421
3.5 1.45786574843 0.0137002721241
3.6 1.42342082231 0.00677084477346
3.7 1.3994481904 0.00590696251956
3.8 1.38228365972 0.00726454486566
3.9 1.36998591865 0.00960009308375
4.0 1.36058978194 0.0124517321339
4.0085 1.35988951977 0.0126857737167
4.0179 1.35915008476 0.0129766604553
4.0273 1.35841702552 0.0132733968701
4.0367 1.35768396627 0.0135701332849
4.0461 1.35695954641 0.0138660027757
4.0555 1.35635596577 0.0141495776393
4.0649 1.35575238514 0.0144331525029
4.0743 1.3551488045 0.0147167273666
4.0837 1.354544615 0.0149865355482
4.0931 1.35393877937 0.0152163683393
4.1024 1.35333939762 0.0154437527518
4.1118 1.35273353125 0.0156735972018
4.1212 1.35211221003 0.0159214181984
4.1306 1.35146765943 0.0161962226442
4.14 1.35082310883 0.0164710270899
4.1494 1.35017852553 0.0167458454759
4.1588 1.34958628738 0.0170759834343
4.1682 1.34904209054 0.0174569371148
4.1776 1.34849789371 0.0178378907953
4.187 1.34795369687 0.0182188444758
4.1964 1.34744000201 0.0185979758478
4.2057 1.34695132423 0.0189718719151
4.2151 1.34645738457 0.0193497939362
4.2245 1.34596341986 0.0197277351284
4.2339 1.34551140759 0.0201300013796
4.2433 1.34508207471 0.0205454359316
4.2527 1.34465274184 0.0209608704836
4.2621 1.34422338718 0.0213763261098
4.2715 1.34382481032 0.0218497864209
4.2809 1.34344166065 0.0223523524317
4.2903 1.34305851099 0.0228549184425
4.2997 1.34267536133 0.0233574844533
4.3091 1.34238846319 0.0239224983099
4.3184 1.3421566442 0.0245151872294
4.3278 1.34192232908 0.0251142579707
4.3372 1.34168800208 0.0257133591017
4.3466 1.34160000487 0.0263062025217
4.356 1.34161711625 0.0268945724973
4.3654 1.34163422763 0.0274829424728
4.3748 1.34165133988 0.0280713422951
4.3842 1.34172567575 0.0286299304468
4.3936 1.34185896288 0.0291578381058
4.403 1.34199225 0.0296857457649
4.4124 1.34212553712 0.0302136534239
4.4217 1.34236282675 0.0307224387506
4.4311 1.34279280982 0.0312122787574
4.4405 1.34322279289 0.0317021187642
4.4499 1.34365279776 0.0321919836195
4.4593 1.3441201323 0.0326033565608
4.4687 1.34474408519 0.0326857094067
4.4781 1.34536803808 0.0327680622526
4.4875 1.34599202262 0.0328504192761
4.4969 1.34661597551 0.032932772122
4.5063 1.34722496758 0.0326717444688
4.5157 1.34783386341 0.0324085079044
4.525 1.34843630364 0.0321480622112
4.5344 1.34904519947 0.0318848256468
4.5438 1.34950881426 0.0314259834097
4.5532 1.34992289851 0.0309004534893
4.5626 1.35033700376 0.0303748969099
4.572 1.35075108801 0.0298493669895
4.5814 1.35104872701 0.0292491800116
4.5908 1.3512157192 0.0285652308691
4.6002 1.35138271986 0.0278812470312
4.6096 1.35154971205 0.0271972978887
4.619 1.35166914033 0.0265092665809
4.6284 1.35153809454 0.0257997383786
4.6377 1.35140843811 0.0250977326941
4.6471 1.35127739232 0.0243882044918
4.6565 1.35114634654 0.0236786762895
4.6659 1.35085787465 0.0230502563834
4.6753 1.35052979969 0.0224422899189
4.6847 1.35020172473 0.0218343234545
4.6941 1.34987364976 0.02122635699
4.7035 1.34949309145 0.0206762986116
4.7129 1.3490368531 0.0202096934301
4.7223 1.3485806379 0.0197431119173
4.7317 1.34812442269 0.0192765304046
4.741 1.34767304435 0.0188148956547
4.7504 1.34720333657 0.0184511048365
4.7598 1.34673322994 0.01809035259
4.7692 1.34626312331 0.0177296003436
4.7786 1.34579299284 0.0173688297969
4.788 1.34530929873 0.0170346788749
4.7974 1.34481224812 0.0167266770469
4.8068 1.34431519752 0.0164186752189
4.8162 1.34381814691 0.0161106733909
4.8256 1.3433210711 0.0158026559386
4.835 1.34279548712 0.0155630254314
4.8444 1.34226984223 0.0153235409055
4.8537 1.3417497703 0.0150865954281
4.8631 1.3412241254 0.0148471109022
4.8725 1.34069374771 0.0146327219306
4.8819 1.34015735671 0.0144502183611
4.8913 1.33962093851 0.0142677055335
4.9007 1.33908454751 0.014085201964
4.9101 1.33854815652 0.0139026983945
4.9195 1.33800110846 0.0137573122018
4.9289 1.33745224225 0.0136182584452
4.9383 1.3369033482 0.0134791976346
4.9477 1.33635448199 0.013340143878
4.957 1.33580786254 0.01321055697
4.9664 1.33524229593 0.0131084768229
4.9758 1.33467675801 0.0130064018537
4.9852 1.3341112201 0.0129043268846
4.9946 1.33354568218 0.0128022519155
5.5 1.30463168425 0.0218339362158
6.0 1.29793886628 0.063253729906
6.5 1.32308597644 0.0646833824479
7.824 1.3156150079 0.0406510981167
7.94819 1.31183328632 0.0397208102272
8.07639 1.30762535686 0.0394707040772
8.20879 1.30398342877 0.039467205223
8.3456 1.29964199698 0.0389340125508
8.48705 1.29461902555 0.0388470915594
8.63338 1.28909367481 0.0394601122557
8.78484 1.28354904942 0.0404638883062
8.94171 1.27833155659 0.0411346476033
9.10429 1.27271835466 0.040608708167
9.27289 1.26416085093 0.0376070380181
9.44785 1.25054562053 0.0344693090111
9.62954 1.23116802771 0.034849115232
9.81835 1.20729616579 0.0400004938781
10.0147 1.17907379279 0.0513353779881
10.2191 1.14517636511 0.0724063759191
10.432 1.10891881871 0.11226682255
10.654 1.08224317347 0.179257399916
10.8856 1.09100531378 0.258849274344
11.1275 1.13441303585 0.330150068619
11.3804 1.18903608986 0.37990069208
11.645 1.25379203084 0.412132097856
11.9223 1.32247149689 0.429996818509
12.2131 1.39176734032 0.421883809564
12.5184 1.46250253239 0.408818399449
12.8394 1.51666191897 0.365522830784
13.8 1.58026434395 0.238466740078
14.8 1.57118947576 0.144582956167
15.8 1.5390790669 0.0998075061672
16.8 1.5193570764 0.0795538294135
17.8834 1.50654025409 0.0615706909384
18.5458 1.49952045143 0.0461219965104
19.2591 1.48094121811 0.0321809467801
20.0294 1.46651930199 0.0287199113598
20.864 1.45194220449 0.0225323467852
21.7711 1.43576448056 0.0193076062108
22.7607 1.41825033261 0.0174786891176
23.8446 1.3995494869 0.0183759909382
25.0368 1.37967047415 0.021944578826
25.641 1.37004530609 0.0246085477968
26.3158 1.35944825107 0.0279190521093
27.027 1.34873694915 0.0317114442423
27.7778 1.33728222907 0.0355443128967
28.5714 1.32436460653 0.0391695588194
29.4118 1.30916983999 0.04334903044
30.303 1.28979028623 0.0482679010528
31.25 1.26469236483 0.0557410205184
32.2581 1.22964935551 0.072058945311
33.3333 1.20042012038 0.113147496028
34.4828 1.18524763585 0.149897590613
35.7143 1.16462743093 0.188105439862
37.037 1.1525886153 0.244618826205
38.4615 1.14615477642 0.300896856831
40.0 1.14181606881 0.354309065199
41.6667 1.11459031314 0.436479223956
43.4783 1.08198490753 0.625588757029
44.46 1.17768216696 0.804969566736
45.4545 1.38170341937 0.870206097525
47.619 1.65109273083 0.766918007112
50.0 1.77356890278 0.589741005603
50.6172 1.77407155804 0.552406984153
52.7692 1.77840129946 0.472606966142
55.0128 1.80212507066 0.403907589179
57.3517 1.74163142514 0.311786691961
59.7901 1.65422342433 0.33841378858
62.3321 1.66509071225 0.420564659016
64.9822 1.74051079817 0.455089828371
67.745 1.82330433148 0.427014088187
70.6253 1.87017631615 0.367354969551
73.628 1.88286636916 0.317576789037
76.7584 1.88590226713 0.272503445673
80.0219 1.87896569292 0.234474672032
83.4241 1.87087279464 0.210932172622
86.9709 1.86315693099 0.187492987117
90.6686 1.85110562856 0.171897026054
94.5235 1.84279152736 0.161519066997
98.5423 1.8372739392 0.154012593423
